<?xml version="1.0" encoding="UTF-8" standalone="no"?>
<!-- Created with Inkscape (http://www.inkscape.org/) -->

<svg
   xmlns:dc="http://purl.org/dc/elements/1.1/"
   xmlns:cc="http://creativecommons.org/ns#"
   xmlns:rdf="http://www.w3.org/1999/02/22-rdf-syntax-ns#"
   xmlns:svg="http://www.w3.org/2000/svg"
   xmlns="http://www.w3.org/2000/svg"
   xmlns:xlink="http://www.w3.org/1999/xlink"
   xmlns:sodipodi="http://sodipodi.sourceforge.net/DTD/sodipodi-0.dtd"
   xmlns:inkscape="http://www.inkscape.org/namespaces/inkscape"
   width="16"
   height="16"
   viewBox="0 0 16 16"
   id="svg2"
   version="1.1"
   inkscape:version="0.91 r13725"
   sodipodi:docname="favicon.svg">
  <defs
     id="defs4">
    <linearGradient
       inkscape:collect="always"
       id="linearGradient4140">
      <stop
         style="stop-color:#16a085;stop-opacity:1;"
         offset="0"
         id="stop4142" />
      <stop
         style="stop-color:#2980b9;stop-opacity:1"
         offset="1"
         id="stop4144" />
    </linearGradient>
    <linearGradient
       inkscape:collect="always"
       xlink:href="#linearGradient4140"
       id="linearGradient4146"
       x1="8"
       y1="1036.3622"
       x2="8"
       y2="1052.3622"
       gradientUnits="userSpaceOnUse" />
  </defs>
  <sodipodi:namedview
     id="base"
     pagecolor="#ffffff"
     bordercolor="#666666"
     borderopacity="1.0"
     inkscape:pageopacity="0.0"
     inkscape:pageshadow="2"
     inkscape:zoom="1"
     inkscape:cx="21.55917"
     inkscape:cy="-119.30442"
     inkscape:document-units="px"
     inkscape:current-layer="layer1"
     showgrid="false"
     units="px"
     inkscape:snap-bbox="true"
     inkscape:bbox-nodes="true"
     inkscape:snap-center="true"
     inkscape:object-nodes="true"
     inkscape:snap-global="true"
     inkscape:window-width="1588"
     inkscape:window-height="891"
     inkscape:window-x="820"
     inkscape:window-y="574"
     inkscape:window-maximized="0">
    <inkscape:grid
       type="xygrid"
       id="grid4138" />
  </sodipodi:namedview>
  <metadata
     id="metadata7">
    <rdf:RDF>
      <cc:Work
         rdf:about="">
        <dc:format>image/svg+xml</dc:format>
        <dc:type
           rdf:resource="http://purl.org/dc/dcmitype/StillImage" />
        <dc:title></dc:title>
      </cc:Work>
    </rdf:RDF>
  </metadata>
  <g
     inkscape:label="Layer 1"
     inkscape:groupmode="layer"
     id="layer1"
     transform="translate(0,-1036.3622)">
    <path
       style="opacity:1;fill:url(#linearGradient4146);fill-opacity:1;stroke:none;stroke-width:1;stroke-linecap:round;stroke-linejoin:bevel;stroke-miterlimit:4;stroke-dasharray:none;stroke-opacity:1"
       d="m 2.0000174,1036.3622 8.9999826,0 5,5 0,9 c 0,1.108 -0.892008,2 -2.000017,2 l -11.9999656,0 C 0.89200776,1052.3622 0,1051.4702 0,1050.3622 l 0,-12 c 0,-1.108 0.89200776,-2 2.0000174,-2 z"
       id="rect4136"
       inkscape:connector-curvature="0"
       sodipodi:nodetypes="sccssssss" />
    <path
       style="opacity:0.2;fill:#000000;fill-opacity:1;stroke:none;stroke-width:1;stroke-linecap:round;stroke-linejoin:bevel;stroke-miterlimit:4;stroke-dasharray:none;stroke-opacity:1"
       d="M 5.8964844,7.7070312 5.5585938,10.417969 11.140625,16 14,16 c 0.815022,0 1.510034,-0.48542 1.822266,-1.181641 L 16,14 16,11 14.137695,12.797852 8.3574219,10.388672 8.1328125,7.921875 Z"
       transform="translate(0,1036.3622)"
       id="rect4550"
       inkscape:connector-curvature="0"
       sodipodi:nodetypes="cccsccccccc" />
    <path
       style="opacity:0.2;fill:#000000;fill-opacity:1;stroke:none;stroke-width:1;stroke-linecap:round;stroke-linejoin:bevel;stroke-miterlimit:4;stroke-dasharray:none;stroke-opacity:1"
       d="M 13.953125 2.953125 L 12.464844 3.5351562 L 16 7.0703125 L 16 5 L 13.953125 2.953125 z "
       transform="translate(0,1036.3622)"
       id="rect4548" />
    <path
       style="fill:#000000;fill-rule:evenodd;stroke:none;stroke-width:1px;stroke-linecap:butt;stroke-linejoin:miter;stroke-opacity:1;fill-opacity:1;opacity:0.2"
       d="M 10 6 L 16 12 L 16 7 L 15 7 L 14 8 L 10 6 z "
       transform="translate(0,1036.3622)"
       id="path4546" />
    <path
       style="opacity:1;fill:#fcfcfc;fill-opacity:1;stroke:none;stroke-width:1;stroke-linecap:round;stroke-linejoin:bevel;stroke-miterlimit:4;stroke-dasharray:none;stroke-opacity:1"
       d="M 11 0 A 5 5 0 0 0 16 5 L 16 2 C 16 0.89199036 15.10801 0 14 0 L 11 0 z "
       transform="translate(0,1036.3622)"
       id="path4148" />
    <path
       style="opacity:1;fill:#fcfcfc;fill-opacity:1;stroke:none;stroke-width:1;stroke-linecap:round;stroke-linejoin:bevel;stroke-miterlimit:4;stroke-dasharray:none;stroke-opacity:1"
       d="M 2 0 C 1.6412255 0 1.3100613 0.099574708 1.0195312 0.26367188 C 1.0196169 0.26431043 1.019445 0.26498664 1.0195312 0.265625 C 1.1364317 1.1309241 1.8014876 1.8204308 2.6621094 1.96875 C 2.9904483 4.1918635 3.8685566 6.2978466 5.2167969 8.0957031 C 4.8256595 8.8670211 4.9745895 9.8023667 5.5859375 10.414062 C 6.1969603 11.023606 7.1300706 11.172429 7.9003906 10.783203 C 9.6993523 12.13443 11.807501 13.014616 14.033203 13.34375 C 14.183593 14.20147 14.871614 14.863484 15.734375 14.980469 C 15.735015 14.980556 15.735688 14.980383 15.736328 14.980469 C 15.900427 14.689941 16 14.358771 16 14 A 1 1 0 0 1 15 13 A 1 1 0 0 1 16 12 L 16 11 C 15.151054 11.0013 14.395452 11.538477 14.115234 12.339844 C 12.146963 12.040284 10.278718 11.274906 8.6660156 10.107422 L 8.6660156 10.105469 C 9.1920492 9.3126609 9.0866804 8.2589267 8.4140625 7.5859375 C 8.0462596 7.2179404 7.5495282 7.0077579 7.0292969 7 C 6.6268866 6.9941805 6.2320813 7.1098993 5.8964844 7.3320312 C 4.7256863 5.7221487 3.9562977 3.8559294 3.6523438 1.8886719 C 4.4581469 1.6106364 4.9991692 0.85242111 5 0 L 4 0 A 1 1 0 0 1 3 1 A 1 1 0 0 1 2 0 z M 7 8 A 1 1 0 0 1 8 9 A 1 1 0 0 1 7 10 A 1 1 0 0 1 6 9 A 1 1 0 0 1 7 8 z "
       transform="translate(0,1036.3622)"
       id="path4188-9" />
    <path
       style="opacity:1;fill:#fcfcfc;fill-opacity:1;stroke:none;stroke-width:1;stroke-linecap:round;stroke-linejoin:bevel;stroke-miterlimit:4;stroke-dasharray:none;stroke-opacity:1"
       d="M 7.5 0 C 7.5045 3.9271383 10.198737 7.3399502 14.017578 8.2558594 C 14.146175 9.2528198 14.99478 9.9994248 16 10 L 16 9 A 1 1 0 0 1 15 8 A 1 1 0 0 1 16 7 L 16 6 C 15.183068 6.000384 14.448487 6.4975789 14.144531 7.2558594 C 10.827546 6.4089275 8.5050216 3.4233986 8.5 0 L 7.5 0 z "
       transform="translate(0,1036.3622)"
       id="path4188-9-3-8" />
  </g>
</svg>
